# Blender v2.93.5 OBJ File: ''
# www.blender.org
mtllib sphere.mtl
o Sphere
v 0.000000 0.490393 -0.097545
v 0.000000 0.461940 -0.191342
v 0.000000 0.415735 -0.277785
v 0.000000 0.353553 -0.353553
v 0.000000 0.277785 -0.415735
v 0.000000 0.191342 -0.461940
v 0.000000 0.097545 -0.490393
v 0.000000 -0.277785 -0.415735
v 0.000000 -0.353553 -0.353553
v 0.000000 -0.415735 -0.277785
v 0.019030 0.490393 -0.095671
v 0.037329 0.461940 -0.187665
v 0.054193 0.415735 -0.272448
v 0.068975 0.353553 -0.346760
v 0.081106 0.277785 -0.407747
v 0.090120 0.191342 -0.453064
v 0.095671 0.097545 -0.480970
v 0.097545 -0.000000 -0.490393
v 0.095671 -0.097545 -0.480970
v 0.090120 -0.191342 -0.453064
v 0.081106 -0.277785 -0.407747
v 0.068975 -0.353553 -0.346760
v 0.054193 -0.415735 -0.272448
v 0.037329 -0.461940 -0.187665
v 0.019030 -0.490393 -0.095671
v 0.037329 0.490393 -0.090120
v 0.073223 0.461940 -0.176777
v 0.106304 0.415735 -0.256640
v 0.135299 0.353553 -0.326641
v 0.159095 0.277785 -0.384089
v 0.176777 0.191342 -0.426777
v 0.187665 0.097545 -0.453064
v 0.191342 -0.000000 -0.461940
v 0.187665 -0.097545 -0.453064
v 0.176777 -0.191342 -0.426777
v 0.159095 -0.277785 -0.384089
v 0.135299 -0.353553 -0.326641
v 0.106304 -0.415735 -0.256640
v 0.073223 -0.461940 -0.176777
v 0.037329 -0.490393 -0.090120
v 0.054193 0.490393 -0.081106
v 0.106304 0.461940 -0.159095
v 0.154329 0.415735 -0.230970
v 0.196424 0.353553 -0.293969
v 0.230970 0.277785 -0.345671
v 0.256640 0.191342 -0.384089
v 0.272448 0.097545 -0.407747
v 0.277785 -0.000000 -0.415735
v 0.272448 -0.097545 -0.407747
v 0.256640 -0.191342 -0.384089
v 0.230970 -0.277785 -0.345671
v 0.196424 -0.353553 -0.293969
v 0.154329 -0.415735 -0.230970
v 0.106304 -0.461940 -0.159095
v 0.054193 -0.490393 -0.081106
v 0.068975 0.490393 -0.068975
v 0.135299 0.461940 -0.135299
v 0.196424 0.415735 -0.196424
v 0.250000 0.353553 -0.250000
v 0.293969 0.277785 -0.293969
v 0.326641 0.191342 -0.326641
v 0.346760 0.097545 -0.346760
v 0.353553 -0.000000 -0.353553
v 0.346760 -0.097545 -0.346760
v 0.326641 -0.191342 -0.326641
v 0.293969 -0.277785 -0.293969
v 0.250000 -0.353553 -0.250000
v 0.196424 -0.415735 -0.196424
v 0.135299 -0.461940 -0.135299
v 0.068975 -0.490393 -0.068975
v 0.081106 0.490393 -0.054193
v 0.159095 0.461940 -0.106304
v 0.230970 0.415735 -0.154329
v 0.293969 0.353553 -0.196424
v 0.345671 0.277785 -0.230970
v 0.384089 0.191342 -0.256640
v 0.407747 0.097545 -0.272447
v 0.415735 -0.000000 -0.277785
v 0.407747 -0.097545 -0.272447
v 0.384089 -0.191342 -0.256640
v 0.345671 -0.277785 -0.230970
v 0.293969 -0.353553 -0.196424
v 0.230970 -0.415735 -0.154329
v 0.159095 -0.461940 -0.106304
v 0.081106 -0.490393 -0.054193
v 0.090120 0.490393 -0.037329
v 0.176777 0.461940 -0.073223
v 0.256640 0.415735 -0.106304
v 0.326641 0.353553 -0.135299
v 0.384089 0.277785 -0.159095
v 0.426777 0.191342 -0.176777
v 0.453064 0.097545 -0.187665
v 0.461940 -0.000000 -0.191342
v 0.453064 -0.097545 -0.187665
v 0.426777 -0.191342 -0.176777
v 0.384089 -0.277785 -0.159095
v 0.326641 -0.353553 -0.135299
v 0.256640 -0.415735 -0.106304
v 0.176777 -0.461940 -0.073223
v 0.090120 -0.490393 -0.037329
v 0.095671 0.490393 -0.019030
v 0.187665 0.461940 -0.037329
v 0.272448 0.415735 -0.054193
v 0.346760 0.353553 -0.068975
v 0.407746 0.277785 -0.081106
v 0.453064 0.191342 -0.090120
v 0.480970 0.097545 -0.095671
v 0.490393 -0.000000 -0.097545
v 0.480970 -0.097545 -0.095671
v 0.453064 -0.191342 -0.090120
v 0.407747 -0.277785 -0.081106
v 0.346760 -0.353553 -0.068975
v 0.272448 -0.415735 -0.054193
v 0.187665 -0.461940 -0.037329
v 0.095671 -0.490393 -0.019030
v 0.097545 0.490393 0.000000
v 0.191342 0.461940 0.000000
v 0.277785 0.415735 0.000000
v 0.353553 0.353553 0.000000
v 0.415735 0.277785 0.000000
v 0.461940 0.191342 0.000000
v 0.490393 0.097545 0.000000
v 0.500000 -0.000000 0.000000
v 0.490393 -0.097545 0.000000
v 0.461940 -0.191342 0.000000
v 0.415735 -0.277785 0.000000
v 0.353553 -0.353553 0.000000
v 0.277785 -0.415735 0.000000
v 0.191342 -0.461940 0.000000
v 0.097545 -0.490393 0.000000
v 0.095671 0.490393 0.019030
v 0.187665 0.461940 0.037329
v 0.272447 0.415735 0.054193
v 0.346760 0.353553 0.068975
v 0.407746 0.277785 0.081106
v 0.453064 0.191342 0.090120
v 0.480970 0.097545 0.095671
v 0.490392 -0.000000 0.097545
v 0.480970 -0.097545 0.095671
v 0.453064 -0.191342 0.090120
v 0.407746 -0.277785 0.081106
v 0.346760 -0.353553 0.068975
v 0.272447 -0.415735 0.054193
v 0.187665 -0.461940 0.037329
v 0.095671 -0.490393 0.019030
v 0.090120 0.490393 0.037329
v 0.176777 0.461940 0.073223
v 0.256640 0.415735 0.106304
v 0.326641 0.353553 0.135299
v 0.384089 0.277785 0.159095
v 0.426777 0.191342 0.176777
v 0.453064 0.097545 0.187665
v 0.461940 -0.000000 0.191342
v 0.453064 -0.097545 0.187665
v 0.426777 -0.191342 0.176777
v 0.384089 -0.277785 0.159095
v 0.326641 -0.353553 0.135299
v 0.256640 -0.415735 0.106304
v 0.176777 -0.461940 0.073223
v 0.090120 -0.490393 0.037329
v 0.081106 0.490393 0.054193
v 0.159095 0.461940 0.106304
v 0.230970 0.415735 0.154329
v 0.293969 0.353553 0.196424
v 0.345671 0.277785 0.230970
v 0.384089 0.191342 0.256640
v 0.407746 0.097545 0.272448
v 0.415735 -0.000000 0.277785
v 0.407746 -0.097545 0.272448
v 0.384089 -0.191342 0.256640
v 0.345671 -0.277785 0.230970
v 0.293969 -0.353553 0.196424
v 0.230970 -0.415735 0.154329
v 0.159095 -0.461940 0.106304
v 0.081106 -0.490393 0.054193
v 0.068975 0.490393 0.068975
v 0.135299 0.461940 0.135299
v 0.196424 0.415735 0.196424
v 0.250000 0.353553 0.250000
v 0.293969 0.277785 0.293969
v 0.326641 0.191342 0.326641
v 0.346760 0.097545 0.346760
v 0.353553 -0.000000 0.353553
v 0.346760 -0.097545 0.346760
v 0.326641 -0.191342 0.326641
v 0.293969 -0.277785 0.293969
v 0.250000 -0.353553 0.250000
v 0.196424 -0.415735 0.196424
v 0.135299 -0.461940 0.135299
v 0.068975 -0.490393 0.068975
v 0.054193 0.490393 0.081106
v 0.106304 0.461940 0.159095
v 0.154329 0.415735 0.230970
v 0.196424 0.353553 0.293969
v 0.230970 0.277785 0.345671
v 0.256640 0.191342 0.384089
v 0.272447 0.097545 0.407746
v 0.277785 -0.000000 0.415735
v 0.272447 -0.097545 0.407746
v 0.256640 -0.191342 0.384089
v 0.230970 -0.277785 0.345671
v 0.196424 -0.353553 0.293969
v 0.154329 -0.415735 0.230970
v 0.106304 -0.461940 0.159095
v 0.054193 -0.490393 0.081106
v 0.037329 0.490393 0.090120
v 0.073223 0.461940 0.176777
v 0.106304 0.415735 0.256640
v 0.135299 0.353553 0.326641
v 0.159095 0.277785 0.384089
v 0.176777 0.191342 0.426777
v 0.187665 0.097545 0.453064
v 0.191341 -0.000000 0.461940
v 0.187665 -0.097545 0.453064
v 0.176777 -0.191342 0.426777
v 0.159095 -0.277785 0.384089
v 0.135299 -0.353553 0.326641
v 0.106304 -0.415735 0.256640
v 0.073223 -0.461940 0.176777
v 0.037329 -0.490393 0.090120
v 0.019030 0.490393 0.095671
v 0.037329 0.461940 0.187665
v 0.054193 0.415735 0.272448
v 0.068975 0.353553 0.346760
v 0.081106 0.277785 0.407746
v 0.090120 0.191342 0.453064
v 0.095671 0.097545 0.480970
v 0.097545 -0.000000 0.490392
v 0.095671 -0.097545 0.480970
v 0.090120 -0.191342 0.453064
v 0.081106 -0.277785 0.407746
v 0.068975 -0.353553 0.346760
v 0.054193 -0.415735 0.272448
v 0.037329 -0.461940 0.187665
v 0.019030 -0.490393 0.095671
v 0.000000 0.490393 0.097545
v -0.000000 0.461940 0.191342
v -0.000000 0.415735 0.277785
v 0.000000 0.353553 0.353553
v -0.000000 0.277785 0.415735
v 0.000000 0.191342 0.461940
v -0.000000 0.097545 0.490392
v -0.000000 -0.000000 0.500000
v -0.000000 -0.097545 0.490392
v -0.000000 -0.191342 0.461940
v -0.000000 -0.277785 0.415735
v 0.000000 -0.353553 0.353553
v -0.000000 -0.415735 0.277785
v 0.000000 -0.461940 0.191342
v -0.000000 -0.490393 0.097545
v -0.019030 0.490393 0.095671
v -0.037329 0.461940 0.187665
v -0.054193 0.415735 0.272447
v -0.068975 0.353553 0.346760
v -0.081106 0.277785 0.407746
v -0.090120 0.191342 0.453064
v -0.095671 0.097545 0.480970
v -0.097545 -0.000000 0.490392
v -0.095671 -0.097545 0.480970
v -0.090120 -0.191342 0.453064
v -0.081106 -0.277785 0.407746
v -0.068975 -0.353553 0.346760
v -0.054193 -0.415735 0.272447
v -0.037329 -0.461940 0.187665
v -0.019030 -0.490393 0.095671
v -0.037329 0.490393 0.090120
v -0.073223 0.461940 0.176777
v -0.106304 0.415735 0.256640
v -0.135299 0.353553 0.326641
v -0.159095 0.277785 0.384089
v -0.176777 0.191342 0.426777
v -0.187665 0.097545 0.453064
v -0.191342 -0.000000 0.461939
v -0.187665 -0.097545 0.453064
v -0.176777 -0.191342 0.426777
v -0.159095 -0.277785 0.384089
v -0.135299 -0.353553 0.326641
v -0.106304 -0.415735 0.256640
v -0.073223 -0.461940 0.176777
v -0.037329 -0.490393 0.090120
v -0.054193 0.490393 0.081106
v -0.106304 0.461940 0.159095
v -0.154329 0.415735 0.230970
v -0.196424 0.353553 0.293969
v -0.230970 0.277785 0.345671
v -0.256640 0.191342 0.384089
v -0.272447 0.097545 0.407746
v -0.277785 -0.000000 0.415734
v -0.272447 -0.097545 0.407746
v -0.256640 -0.191342 0.384089
v -0.230970 -0.277785 0.345671
v -0.196424 -0.353553 0.293969
v -0.154329 -0.415735 0.230970
v -0.106304 -0.461940 0.159095
v -0.054193 -0.490393 0.081106
v -0.068975 0.490393 0.068975
v -0.135299 0.461940 0.135299
v -0.196424 0.415735 0.196424
v -0.250000 0.353553 0.250000
v -0.293969 0.277785 0.293969
v -0.326641 0.191342 0.326641
v -0.346760 0.097545 0.346760
v -0.353553 -0.000000 0.353553
v -0.346760 -0.097545 0.346760
v -0.326641 -0.191342 0.326641
v -0.293969 -0.277785 0.293969
v -0.250000 -0.353553 0.250000
v -0.196424 -0.415735 0.196424
v -0.135299 -0.461940 0.135299
v -0.068975 -0.490393 0.068975
v -0.081106 0.490393 0.054193
v -0.159095 0.461940 0.106304
v -0.230970 0.415735 0.154329
v -0.293969 0.353553 0.196424
v -0.345671 0.277785 0.230970
v -0.384089 0.191342 0.256640
v -0.407746 0.097545 0.272447
v -0.415735 -0.000000 0.277785
v -0.407746 -0.097545 0.272447
v -0.384089 -0.191342 0.256640
v -0.345671 -0.277785 0.230970
v -0.293969 -0.353553 0.196424
v -0.230970 -0.415735 0.154329
v -0.159095 -0.461940 0.106304
v -0.081106 -0.490393 0.054193
v -0.000000 0.500000 0.000000
v -0.090120 0.490393 0.037329
v -0.176777 0.461940 0.073223
v -0.256640 0.415735 0.106304
v -0.326641 0.353553 0.135299
v -0.384089 0.277785 0.159095
v -0.426777 0.191342 0.176777
v -0.453064 0.097545 0.187665
v -0.461939 -0.000000 0.191341
v -0.453064 -0.097545 0.187665
v -0.426777 -0.191342 0.176777
v -0.384089 -0.277785 0.159095
v -0.326641 -0.353553 0.135299
v -0.256640 -0.415735 0.106304
v -0.176777 -0.461940 0.073223
v -0.090120 -0.490393 0.037329
v -0.095671 0.490393 0.019030
v -0.187665 0.461940 0.037329
v -0.272447 0.415735 0.054193
v -0.346760 0.353553 0.068975
v -0.407746 0.277785 0.081106
v -0.453064 0.191342 0.090120
v -0.480970 0.097545 0.095671
v -0.490392 -0.000000 0.097545
v -0.480970 -0.097545 0.095671
v -0.453064 -0.191342 0.090120
v -0.407746 -0.277785 0.081106
v -0.346760 -0.353553 0.068975
v -0.272447 -0.415735 0.054193
v -0.187665 -0.461940 0.037329
v -0.095671 -0.490393 0.019030
v -0.097545 0.490393 0.000000
v -0.191342 0.461940 0.000000
v -0.277785 0.415735 -0.000000
v -0.353553 0.353553 0.000000
v -0.415735 0.277785 0.000000
v -0.461940 0.191342 0.000000
v -0.490392 0.097545 -0.000000
v -0.500000 -0.000000 -0.000000
v -0.490392 -0.097545 -0.000000
v -0.461940 -0.191342 -0.000000
v -0.415735 -0.277785 0.000000
v -0.353553 -0.353553 0.000000
v -0.277785 -0.415735 -0.000000
v -0.191342 -0.461940 0.000000
v -0.097545 -0.490393 0.000000
v -0.095671 0.490393 -0.019030
v -0.187665 0.461940 -0.037329
v -0.272447 0.415735 -0.054193
v -0.346760 0.353553 -0.068975
v -0.407746 0.277785 -0.081106
v -0.453064 0.191342 -0.090120
v -0.480970 0.097545 -0.095671
v -0.490392 -0.000000 -0.097545
v -0.480970 -0.097545 -0.095671
v -0.453064 -0.191342 -0.090120
v -0.407746 -0.277785 -0.081106
v -0.346760 -0.353553 -0.068975
v -0.272447 -0.415735 -0.054193
v -0.187665 -0.461940 -0.037329
v -0.095671 -0.490393 -0.019030
v -0.090120 0.490393 -0.037329
v -0.176777 0.461940 -0.073223
v -0.256640 0.415735 -0.106304
v -0.326641 0.353553 -0.135299
v -0.384089 0.277785 -0.159095
v -0.426777 0.191342 -0.176777
v -0.453063 0.097545 -0.187665
v -0.461939 -0.000000 -0.191342
v -0.453063 -0.097545 -0.187665
v -0.426777 -0.191342 -0.176777
v -0.384089 -0.277785 -0.159095
v -0.326641 -0.353553 -0.135299
v -0.256640 -0.415735 -0.106304
v -0.176777 -0.461940 -0.073223
v -0.090120 -0.490393 -0.037329
v -0.081106 0.490393 -0.054193
v -0.159095 0.461940 -0.106304
v -0.230970 0.415735 -0.154329
v -0.293969 0.353553 -0.196424
v -0.345671 0.277785 -0.230970
v -0.384089 0.191342 -0.256640
v -0.407746 0.097545 -0.272447
v -0.415734 -0.000000 -0.277785
v -0.407746 -0.097545 -0.272447
v -0.384089 -0.191342 -0.256640
v -0.345671 -0.277785 -0.230970
v -0.293969 -0.353553 -0.196424
v -0.230970 -0.415735 -0.154329
v -0.159095 -0.461940 -0.106304
v -0.081106 -0.490393 -0.054193
v -0.068975 0.490393 -0.068975
v -0.135299 0.461940 -0.135299
v -0.196424 0.415735 -0.196424
v -0.250000 0.353553 -0.250000
v -0.293969 0.277785 -0.293969
v -0.326641 0.191342 -0.326641
v -0.346760 0.097545 -0.346760
v -0.353553 -0.000000 -0.353553
v -0.346760 -0.097545 -0.346760
v -0.326641 -0.191342 -0.326641
v -0.293969 -0.277785 -0.293969
v -0.250000 -0.353553 -0.250000
v -0.196424 -0.415735 -0.196424
v -0.135299 -0.461940 -0.135299
v -0.068975 -0.490393 -0.068975
v -0.054193 0.490393 -0.081106
v -0.106304 0.461940 -0.159095
v -0.154329 0.415735 -0.230970
v -0.196424 0.353553 -0.293969
v -0.230970 0.277785 -0.345671
v -0.256640 0.191342 -0.384089
v -0.272447 0.097545 -0.407746
v -0.277785 -0.000000 -0.415734
v -0.272447 -0.097545 -0.407746
v -0.256640 -0.191342 -0.384089
v -0.230970 -0.277785 -0.345671
v -0.196424 -0.353553 -0.293969
v -0.154329 -0.415735 -0.230970
v -0.106304 -0.461940 -0.159095
v -0.054193 -0.490393 -0.081106
v -0.037329 0.490393 -0.090120
v -0.073223 0.461940 -0.176777
v -0.106304 0.415735 -0.256640
v -0.135299 0.353553 -0.326641
v -0.159095 0.277785 -0.384089
v -0.176777 0.191342 -0.426777
v -0.187665 0.097545 -0.453063
v -0.191341 -0.000000 -0.461939
v -0.187665 -0.097545 -0.453063
v -0.176777 -0.191342 -0.426777
v -0.159095 -0.277785 -0.384089
v -0.135299 -0.353553 -0.326641
v -0.106304 -0.415735 -0.256640
v -0.073223 -0.461940 -0.176777
v -0.037329 -0.490393 -0.090120
v -0.019030 0.490393 -0.095671
v -0.037329 0.461940 -0.187665
v -0.054193 0.415735 -0.272447
v -0.068975 0.353553 -0.346760
v -0.081106 0.277785 -0.407746
v -0.090120 0.191342 -0.453064
v -0.095671 0.097545 -0.480970
v -0.097545 -0.000000 -0.490392
v -0.095671 -0.097545 -0.480970
v -0.090120 -0.191342 -0.453064
v -0.081106 -0.277785 -0.407746
v -0.068975 -0.353553 -0.346760
v -0.054193 -0.415735 -0.272447
v -0.037329 -0.461940 -0.187665
v -0.019030 -0.490393 -0.095671
v 0.000000 -0.000000 -0.499999
v 0.000000 -0.097545 -0.490392
v 0.000000 -0.191342 -0.461940
v 0.000000 -0.461940 -0.191342
v 0.000000 -0.490393 -0.097545
v 0.000000 -0.500000 0.000000
vt 0.750000 0.500000
vt 0.750000 0.562500
vt 0.718750 0.562500
vt 0.718750 0.500000
vt 0.750000 0.937500
vt 0.734375 1.000000
vt 0.718750 0.937500
vt 0.734375 0.000000
vt 0.750000 0.062500
vt 0.718750 0.062500
vt 0.750000 0.437500
vt 0.718750 0.437500
vt 0.750000 0.875000
vt 0.718750 0.875000
vt 0.750000 0.375000
vt 0.718750 0.375000
vt 0.750000 0.812500
vt 0.718750 0.812500
vt 0.750000 0.312500
vt 0.718750 0.312500
vt 0.750000 0.750000
vt 0.718750 0.750000
vt 0.750000 0.250000
vt 0.718750 0.250000
vt 0.750000 0.687500
vt 0.718750 0.687500
vt 0.750000 0.187500
vt 0.718750 0.187500
vt 0.750000 0.625000
vt 0.718750 0.625000
vt 0.750000 0.125000
vt 0.718750 0.125000
vt 0.687500 0.625000
vt 0.687500 0.562500
vt 0.687500 0.125000
vt 0.687500 0.062500
vt 0.687500 0.500000
vt 0.703125 1.000000
vt 0.687500 0.937500
vt 0.703125 0.000000
vt 0.687500 0.437500
vt 0.687500 0.875000
vt 0.687500 0.375000
vt 0.687500 0.812500
vt 0.687500 0.312500
vt 0.687500 0.750000
vt 0.687500 0.250000
vt 0.687500 0.687500
vt 0.687500 0.187500
vt 0.656250 0.375000
vt 0.656250 0.312500
vt 0.656250 0.812500
vt 0.656250 0.750000
vt 0.656250 0.250000
vt 0.656250 0.687500
vt 0.656250 0.187500
vt 0.656250 0.625000
vt 0.656250 0.125000
vt 0.656250 0.562500
vt 0.656250 0.062500
vt 0.656250 0.500000
vt 0.671875 1.000000
vt 0.656250 0.937500
vt 0.671875 0.000000
vt 0.656250 0.437500
vt 0.656250 0.875000
vt 0.625000 0.125000
vt 0.625000 0.062500
vt 0.625000 0.562500
vt 0.625000 0.500000
vt 0.640625 1.000000
vt 0.625000 0.937500
vt 0.640625 0.000000
vt 0.625000 0.437500
vt 0.625000 0.875000
vt 0.625000 0.375000
vt 0.625000 0.812500
vt 0.625000 0.312500
vt 0.625000 0.750000
vt 0.625000 0.250000
vt 0.625000 0.687500
vt 0.625000 0.187500
vt 0.625000 0.625000
vt 0.593750 0.812500
vt 0.593750 0.750000
vt 0.593750 0.312500
vt 0.593750 0.250000
vt 0.593750 0.687500
vt 0.593750 0.187500
vt 0.593750 0.625000
vt 0.593750 0.125000
vt 0.593750 0.562500
vt 0.593750 0.062500
vt 0.593750 0.500000
vt 0.609375 1.000000
vt 0.593750 0.937500
vt 0.609375 0.000000
vt 0.593750 0.437500
vt 0.593750 0.875000
vt 0.593750 0.375000
vt 0.562500 0.562500
vt 0.562500 0.500000
vt 0.578125 1.000000
vt 0.562500 0.937500
vt 0.578125 0.000000
vt 0.562500 0.062500
vt 0.562500 0.437500
vt 0.562500 0.875000
vt 0.562500 0.375000
vt 0.562500 0.812500
vt 0.562500 0.312500
vt 0.562500 0.750000
vt 0.562500 0.250000
vt 0.562500 0.687500
vt 0.562500 0.187500
vt 0.562500 0.625000
vt 0.562500 0.125000
vt 0.531250 0.312500
vt 0.531250 0.250000
vt 0.531250 0.750000
vt 0.531250 0.687500
vt 0.531250 0.187500
vt 0.531250 0.625000
vt 0.531250 0.125000
vt 0.531250 0.562500
vt 0.531250 0.062500
vt 0.531250 0.500000
vt 0.546875 1.000000
vt 0.531250 0.937500
vt 0.546875 0.000000
vt 0.531250 0.437500
vt 0.531250 0.875000
vt 0.531250 0.375000
vt 0.531250 0.812500
vt 0.515625 0.000000
vt 0.500000 0.062500
vt 0.500000 0.500000
vt 0.500000 0.437500
vt 0.500000 0.937500
vt 0.500000 0.875000
vt 0.500000 0.375000
vt 0.500000 0.812500
vt 0.500000 0.312500
vt 0.500000 0.750000
vt 0.500000 0.250000
vt 0.500000 0.687500
vt 0.500000 0.187500
vt 0.500000 0.625000
vt 0.500000 0.125000
vt 0.500000 0.562500
vt 0.515625 1.000000
vt 0.468750 0.250000
vt 0.468750 0.187500
vt 0.468750 0.687500
vt 0.468750 0.625000
vt 0.468750 0.125000
vt 0.468750 0.562500
vt 0.468750 0.062500
vt 0.468750 0.500000
vt 0.484375 1.000000
vt 0.468750 0.937500
vt 0.484375 0.000000
vt 0.468750 0.437500
vt 0.468750 0.875000
vt 0.468750 0.375000
vt 0.468750 0.812500
vt 0.468750 0.312500
vt 0.468750 0.750000
vt 0.437500 0.937500
vt 0.437500 0.875000
vt 0.437500 0.437500
vt 0.437500 0.375000
vt 0.437500 0.812500
vt 0.437500 0.312500
vt 0.437500 0.750000
vt 0.437500 0.250000
vt 0.437500 0.687500
vt 0.437500 0.187500
vt 0.437500 0.625000
vt 0.437500 0.125000
vt 0.437500 0.562500
vt 0.437500 0.062500
vt 0.437500 0.500000
vt 0.453125 1.000000
vt 0.453125 0.000000
vt 0.406250 0.687500
vt 0.406250 0.625000
vt 0.406250 0.187500
vt 0.406250 0.125000
vt 0.406250 0.562500
vt 0.406250 0.062500
vt 0.406250 0.500000
vt 0.421875 1.000000
vt 0.406250 0.937500
vt 0.421875 0.000000
vt 0.406250 0.437500
vt 0.406250 0.875000
vt 0.406250 0.375000
vt 0.406250 0.812500
vt 0.406250 0.312500
vt 0.406250 0.750000
vt 0.406250 0.250000
vt 0.375000 0.437500
vt 0.375000 0.375000
vt 0.375000 0.875000
vt 0.375000 0.812500
vt 0.375000 0.312500
vt 0.375000 0.750000
vt 0.375000 0.250000
vt 0.375000 0.687500
vt 0.375000 0.187500
vt 0.375000 0.625000
vt 0.375000 0.125000
vt 0.375000 0.562500
vt 0.375000 0.062500
vt 0.375000 0.500000
vt 0.390625 1.000000
vt 0.375000 0.937500
vt 0.390625 0.000000
vt 0.343750 0.187500
vt 0.343750 0.125000
vt 0.343750 0.625000
vt 0.343750 0.562500
vt 0.343750 0.062500
vt 0.343750 0.500000
vt 0.359375 1.000000
vt 0.343750 0.937500
vt 0.359375 0.000000
vt 0.343750 0.437500
vt 0.343750 0.875000
vt 0.343750 0.375000
vt 0.343750 0.812500
vt 0.343750 0.312500
vt 0.343750 0.750000
vt 0.343750 0.250000
vt 0.343750 0.687500
vt 0.312500 0.875000
vt 0.312500 0.812500
vt 0.312500 0.375000
vt 0.312500 0.312500
vt 0.312500 0.750000
vt 0.312500 0.250000
vt 0.312500 0.687500
vt 0.312500 0.187500
vt 0.312500 0.625000
vt 0.312500 0.125000
vt 0.312500 0.562500
vt 0.312500 0.062500
vt 0.312500 0.500000
vt 0.328125 1.000000
vt 0.312500 0.937500
vt 0.328125 0.000000
vt 0.312500 0.437500
vt 0.281250 0.625000
vt 0.281250 0.562500
vt 0.281250 0.125000
vt 0.281250 0.062500
vt 0.281250 0.500000
vt 0.296875 1.000000
vt 0.281250 0.937500
vt 0.296875 0.000000
vt 0.281250 0.437500
vt 0.281250 0.875000
vt 0.281250 0.375000
vt 0.281250 0.812500
vt 0.281250 0.312500
vt 0.281250 0.750000
vt 0.281250 0.250000
vt 0.281250 0.687500
vt 0.281250 0.187500
vt 0.250000 0.375000
vt 0.250000 0.312500
vt 0.250000 0.812500
vt 0.250000 0.750000
vt 0.250000 0.250000
vt 0.250000 0.687500
vt 0.250000 0.187500
vt 0.250000 0.625000
vt 0.250000 0.125000
vt 0.250000 0.562500
vt 0.250000 0.062500
vt 0.250000 0.500000
vt 0.265625 1.000000
vt 0.250000 0.937500
vt 0.265625 0.000000
vt 0.250000 0.437500
vt 0.250000 0.875000
vt 0.218750 0.125000
vt 0.218750 0.062500
vt 0.218750 0.562500
vt 0.218750 0.500000
vt 0.234375 1.000000
vt 0.218750 0.937500
vt 0.234375 0.000000
vt 0.218750 0.437500
vt 0.218750 0.875000
vt 0.218750 0.375000
vt 0.218750 0.812500
vt 0.218750 0.312500
vt 0.218750 0.750000
vt 0.218750 0.250000
vt 0.218750 0.687500
vt 0.218750 0.187500
vt 0.218750 0.625000
vt 0.187500 0.312500
vt 0.187500 0.250000
vt 0.187500 0.750000
vt 0.187500 0.687500
vt 0.187500 0.187500
vt 0.187500 0.625000
vt 0.187500 0.125000
vt 0.187500 0.562500
vt 0.187500 0.062500
vt 0.187500 0.500000
vt 0.203125 1.000000
vt 0.187500 0.937500
vt 0.203125 0.000000
vt 0.187500 0.437500
vt 0.187500 0.875000
vt 0.187500 0.375000
vt 0.187500 0.812500
vt 0.171875 1.000000
vt 0.156250 0.937500
vt 0.171875 0.000000
vt 0.156250 0.062500
vt 0.156250 0.500000
vt 0.156250 0.437500
vt 0.156250 0.875000
vt 0.156250 0.375000
vt 0.156250 0.812500
vt 0.156250 0.312500
vt 0.156250 0.750000
vt 0.156250 0.250000
vt 0.156250 0.687500
vt 0.156250 0.187500
vt 0.156250 0.625000
vt 0.156250 0.125000
vt 0.156250 0.562500
vt 0.125000 0.750000
vt 0.125000 0.687500
vt 0.125000 0.250000
vt 0.125000 0.187500
vt 0.125000 0.625000
vt 0.125000 0.125000
vt 0.125000 0.562500
vt 0.125000 0.062500
vt 0.125000 0.500000
vt 0.140625 1.000000
vt 0.125000 0.937500
vt 0.140625 0.000000
vt 0.125000 0.437500
vt 0.125000 0.875000
vt 0.125000 0.375000
vt 0.125000 0.812500
vt 0.125000 0.312500
vt 0.093750 0.500000
vt 0.093750 0.437500
vt 0.093750 0.937500
vt 0.093750 0.875000
vt 0.093750 0.375000
vt 0.093750 0.812500
vt 0.093750 0.312500
vt 0.093750 0.750000
vt 0.093750 0.250000
vt 0.093750 0.687500
vt 0.093750 0.187500
vt 0.093750 0.625000
vt 0.093750 0.125000
vt 0.093750 0.562500
vt 0.093750 0.062500
vt 0.109375 1.000000
vt 0.109375 0.000000
vt 0.062500 0.250000
vt 0.062500 0.187500
vt 0.062500 0.687500
vt 0.062500 0.625000
vt 0.062500 0.125000
vt 0.062500 0.562500
vt 0.062500 0.062500
vt 0.062500 0.500000
vt 0.078125 1.000000
vt 0.062500 0.937500
vt 0.078125 0.000000
vt 0.062500 0.437500
vt 0.062500 0.875000
vt 0.062500 0.375000
vt 0.062500 0.812500
vt 0.062500 0.312500
vt 0.062500 0.750000
vt 0.031250 0.937500
vt 0.031250 0.875000
vt 0.031250 0.437500
vt 0.031250 0.375000
vt 0.031250 0.812500
vt 0.031250 0.312500
vt 0.031250 0.750000
vt 0.031250 0.250000
vt 0.031250 0.687500
vt 0.031250 0.187500
vt 0.031250 0.625000
vt 0.031250 0.125000
vt 0.031250 0.562500
vt 0.031250 0.062500
vt 0.031250 0.500000
vt 0.046875 1.000000
vt 0.046875 0.000000
vt 0.000000 0.687500
vt 0.000000 0.625000
vt 0.000000 0.187500
vt 0.000000 0.125000
vt 0.000000 0.562500
vt 0.000000 0.062500
vt 0.000000 0.500000
vt 0.015625 1.000000
vt 0.000000 0.937500
vt 0.015625 0.000000
vt 0.000000 0.437500
vt 0.000000 0.875000
vt 0.000000 0.375000
vt 0.000000 0.812500
vt 0.000000 0.312500
vt 0.000000 0.750000
vt 0.000000 0.250000
vt 1.000000 0.375000
vt 1.000000 0.437500
vt 0.968750 0.437500
vt 0.968750 0.375000
vt 1.000000 0.812500
vt 1.000000 0.875000
vt 0.968750 0.875000
vt 0.968750 0.812500
vt 1.000000 0.312500
vt 0.968750 0.312500
vt 1.000000 0.750000
vt 0.968750 0.750000
vt 1.000000 0.250000
vt 0.968750 0.250000
vt 1.000000 0.687500
vt 0.968750 0.687500
vt 1.000000 0.187500
vt 0.968750 0.187500
vt 1.000000 0.625000
vt 0.968750 0.625000
vt 1.000000 0.125000
vt 0.968750 0.125000
vt 1.000000 0.562500
vt 0.968750 0.562500
vt 1.000000 0.062500
vt 0.968750 0.062500
vt 1.000000 0.500000
vt 0.968750 0.500000
vt 1.000000 0.937500
vt 0.984375 1.000000
vt 0.968750 0.937500
vt 0.984375 0.000000
vt 0.937500 0.187500
vt 0.937500 0.125000
vt 0.937500 0.625000
vt 0.937500 0.562500
vt 0.937500 0.062500
vt 0.937500 0.500000
vt 0.953125 1.000000
vt 0.937500 0.937500
vt 0.953125 0.000000
vt 0.937500 0.437500
vt 0.937500 0.875000
vt 0.937500 0.375000
vt 0.937500 0.812500
vt 0.937500 0.312500
vt 0.937500 0.750000
vt 0.937500 0.250000
vt 0.937500 0.687500
vt 0.906250 0.375000
vt 0.906250 0.312500
vt 0.906250 0.812500
vt 0.906250 0.750000
vt 0.906250 0.250000
vt 0.906250 0.687500
vt 0.906250 0.187500
vt 0.906250 0.625000
vt 0.906250 0.125000
vt 0.906250 0.562500
vt 0.906250 0.062500
vt 0.906250 0.500000
vt 0.921875 1.000000
vt 0.906250 0.937500
vt 0.921875 0.000000
vt 0.906250 0.437500
vt 0.906250 0.875000
vt 0.875000 0.125000
vt 0.875000 0.062500
vt 0.875000 0.562500
vt 0.875000 0.500000
vt 0.890625 1.000000
vt 0.875000 0.937500
vt 0.890625 0.000000
vt 0.875000 0.437500
vt 0.875000 0.875000
vt 0.875000 0.375000
vt 0.875000 0.812500
vt 0.875000 0.312500
vt 0.875000 0.750000
vt 0.875000 0.250000
vt 0.875000 0.687500
vt 0.875000 0.187500
vt 0.875000 0.625000
vt 0.843750 0.812500
vt 0.843750 0.750000
vt 0.843750 0.312500
vt 0.843750 0.250000
vt 0.843750 0.687500
vt 0.843750 0.187500
vt 0.843750 0.625000
vt 0.843750 0.125000
vt 0.843750 0.562500
vt 0.843750 0.062500
vt 0.843750 0.500000
vt 0.859375 1.000000
vt 0.843750 0.937500
vt 0.859375 0.000000
vt 0.843750 0.437500
vt 0.843750 0.875000
vt 0.843750 0.375000
vt 0.812500 0.562500
vt 0.812500 0.500000
vt 0.828125 1.000000
vt 0.812500 0.937500
vt 0.828125 0.000000
vt 0.812500 0.062500
vt 0.812500 0.437500
vt 0.812500 0.875000
vt 0.812500 0.375000
vt 0.812500 0.812500
vt 0.812500 0.312500
vt 0.812500 0.750000
vt 0.812500 0.250000
vt 0.812500 0.687500
vt 0.812500 0.187500
vt 0.812500 0.625000
vt 0.812500 0.125000
vt 0.781250 0.312500
vt 0.781250 0.250000
vt 0.781250 0.750000
vt 0.781250 0.687500
vt 0.781250 0.187500
vt 0.781250 0.625000
vt 0.781250 0.125000
vt 0.781250 0.562500
vt 0.781250 0.062500
vt 0.781250 0.500000
vt 0.796875 1.000000
vt 0.781250 0.937500
vt 0.796875 0.000000
vt 0.781250 0.437500
vt 0.781250 0.875000
vt 0.781250 0.375000
vt 0.781250 0.812500
vt 0.765625 1.000000
vt 0.765625 0.000000
vn 0.0975 0.0975 -0.9904
vn 0.0097 0.9951 -0.0980
vn 0.0097 -0.9951 -0.0980
vn 0.0975 -0.0975 -0.9904
vn 0.0286 0.9565 -0.2902
vn 0.0938 -0.2890 -0.9527
vn 0.0464 0.8810 -0.4709
vn 0.0865 -0.4696 -0.8786
vn 0.0624 0.7715 -0.6332
vn 0.0759 -0.6326 -0.7708
vn 0.0759 0.6326 -0.7708
vn 0.0624 -0.7715 -0.6332
vn 0.0865 0.4696 -0.8786
vn 0.0464 -0.8810 -0.4709
vn 0.0938 0.2890 -0.9527
vn 0.0286 -0.9565 -0.2902
vn 0.2779 0.2890 -0.9161
vn 0.0846 -0.9565 -0.2790
vn 0.2889 0.0975 -0.9524
vn 0.0286 0.9951 -0.0942
vn 0.0286 -0.9951 -0.0942
vn 0.2889 -0.0975 -0.9524
vn 0.0846 0.9565 -0.2790
vn 0.2779 -0.2890 -0.9161
vn 0.1374 0.8810 -0.4528
vn 0.2563 -0.4696 -0.8448
vn 0.1847 0.7715 -0.6088
vn 0.2248 -0.6326 -0.7412
vn 0.2248 0.6326 -0.7412
vn 0.1847 -0.7715 -0.6088
vn 0.2563 0.4696 -0.8448
vn 0.1374 -0.8810 -0.4528
vn 0.4162 -0.4696 -0.7786
vn 0.2999 0.7715 -0.5611
vn 0.3651 -0.6326 -0.6831
vn 0.3651 0.6326 -0.6831
vn 0.2999 -0.7715 -0.5611
vn 0.4162 0.4696 -0.7786
vn 0.2230 -0.8810 -0.4173
vn 0.4513 0.2890 -0.8443
vn 0.1374 -0.9565 -0.2571
vn 0.4691 0.0975 -0.8777
vn 0.0464 0.9951 -0.0869
vn 0.0464 -0.9951 -0.0869
vn 0.4691 -0.0975 -0.8777
vn 0.1374 0.9565 -0.2571
vn 0.4513 -0.2890 -0.8443
vn 0.2230 0.8810 -0.4173
vn 0.1850 -0.9565 -0.2254
vn 0.6314 0.0975 -0.7693
vn 0.0625 0.9951 -0.0761
vn 0.0625 -0.9951 -0.0761
vn 0.6314 -0.0975 -0.7693
vn 0.1850 0.9565 -0.2254
vn 0.6073 -0.2890 -0.7400
vn 0.3002 0.8810 -0.3658
vn 0.5601 -0.4696 -0.6825
vn 0.4036 0.7715 -0.4918
vn 0.4913 -0.6326 -0.5987
vn 0.4913 0.6326 -0.5987
vn 0.4036 -0.7715 -0.4918
vn 0.5601 0.4696 -0.6825
vn 0.3002 -0.8810 -0.3658
vn 0.6073 0.2890 -0.7400
vn 0.4918 0.7715 -0.4036
vn 0.5987 -0.6326 -0.4913
vn 0.5987 0.6326 -0.4913
vn 0.4918 -0.7715 -0.4036
vn 0.6825 0.4696 -0.5601
vn 0.3658 -0.8810 -0.3002
vn 0.7400 0.2890 -0.6073
vn 0.2254 -0.9565 -0.1850
vn 0.7693 0.0975 -0.6314
vn 0.0761 0.9951 -0.0625
vn 0.0761 -0.9951 -0.0625
vn 0.7693 -0.0975 -0.6314
vn 0.2254 0.9565 -0.1850
vn 0.7400 -0.2890 -0.6073
vn 0.3658 0.8810 -0.3002
vn 0.6825 -0.4696 -0.5601
vn 0.8777 0.0975 -0.4691
vn 0.0869 0.9951 -0.0464
vn 0.0869 -0.9951 -0.0464
vn 0.8777 -0.0975 -0.4691
vn 0.2571 0.9565 -0.1374
vn 0.8443 -0.2890 -0.4513
vn 0.4173 0.8810 -0.2230
vn 0.7786 -0.4696 -0.4162
vn 0.5611 0.7715 -0.2999
vn 0.6831 -0.6326 -0.3651
vn 0.6831 0.6326 -0.3651
vn 0.5611 -0.7715 -0.2999
vn 0.7786 0.4696 -0.4162
vn 0.4173 -0.8810 -0.2230
vn 0.8443 0.2890 -0.4513
vn 0.2571 -0.9565 -0.1374
vn 0.7412 -0.6326 -0.2248
vn 0.7412 0.6326 -0.2248
vn 0.6088 -0.7715 -0.1847
vn 0.8448 0.4696 -0.2563
vn 0.4528 -0.8810 -0.1374
vn 0.9161 0.2890 -0.2779
vn 0.2790 -0.9565 -0.0846
vn 0.9524 0.0975 -0.2889
vn 0.0942 0.9951 -0.0286
vn 0.0942 -0.9951 -0.0286
vn 0.9524 -0.0975 -0.2889
vn 0.2790 0.9565 -0.0846
vn 0.9161 -0.2890 -0.2779
vn 0.4528 0.8810 -0.1374
vn 0.8448 -0.4696 -0.2563
vn 0.6088 0.7715 -0.1847
vn 0.0980 -0.9951 -0.0097
vn 0.9904 -0.0975 -0.0975
vn 0.2902 0.9565 -0.0286
vn 0.9527 -0.2890 -0.0938
vn 0.4709 0.8810 -0.0464
vn 0.8786 -0.4696 -0.0865
vn 0.6332 0.7715 -0.0624
vn 0.7708 -0.6326 -0.0759
vn 0.7708 0.6326 -0.0759
vn 0.6332 -0.7715 -0.0624
vn 0.8786 0.4696 -0.0865
vn 0.4709 -0.8810 -0.0464
vn 0.9527 0.2890 -0.0938
vn 0.2902 -0.9565 -0.0286
vn 0.9904 0.0975 -0.0975
vn 0.0980 0.9951 -0.0097
vn 0.6332 -0.7715 0.0624
vn 0.8786 0.4696 0.0865
vn 0.4709 -0.8810 0.0464
vn 0.9527 0.2890 0.0938
vn 0.2902 -0.9565 0.0286
vn 0.9904 0.0975 0.0976
vn 0.0980 0.9951 0.0097
vn 0.0980 -0.9951 0.0097
vn 0.9904 -0.0975 0.0976
vn 0.2902 0.9565 0.0286
vn 0.9527 -0.2890 0.0938
vn 0.4709 0.8810 0.0464
vn 0.8786 -0.4696 0.0865
vn 0.6332 0.7715 0.0624
vn 0.7708 -0.6326 0.0759
vn 0.7708 0.6326 0.0759
vn 0.2790 0.9565 0.0846
vn 0.9161 -0.2890 0.2779
vn 0.4528 0.8810 0.1374
vn 0.8448 -0.4696 0.2563
vn 0.6088 0.7715 0.1847
vn 0.7412 -0.6326 0.2248
vn 0.7412 0.6326 0.2248
vn 0.6088 -0.7715 0.1847
vn 0.8448 0.4696 0.2563
vn 0.4528 -0.8810 0.1374
vn 0.9161 0.2890 0.2779
vn 0.2790 -0.9565 0.0846
vn 0.9524 0.0975 0.2889
vn 0.0942 0.9951 0.0286
vn 0.0942 -0.9951 0.0286
vn 0.9524 -0.0975 0.2889
vn 0.7786 0.4696 0.4162
vn 0.4173 -0.8810 0.2230
vn 0.8443 0.2890 0.4513
vn 0.2571 -0.9565 0.1374
vn 0.8777 0.0975 0.4691
vn 0.0869 0.9951 0.0464
vn 0.0869 -0.9951 0.0464
vn 0.8777 -0.0975 0.4691
vn 0.2571 0.9565 0.1374
vn 0.8443 -0.2890 0.4513
vn 0.4173 0.8810 0.2230
vn 0.7786 -0.4696 0.4162
vn 0.5611 0.7715 0.2999
vn 0.6831 -0.6326 0.3651
vn 0.6831 0.6326 0.3651
vn 0.5611 -0.7715 0.2999
vn 0.7400 -0.2890 0.6073
vn 0.3658 0.8810 0.3002
vn 0.6825 -0.4696 0.5601
vn 0.4918 0.7715 0.4036
vn 0.5987 -0.6326 0.4913
vn 0.5987 0.6326 0.4913
vn 0.4918 -0.7715 0.4036
vn 0.6825 0.4696 0.5601
vn 0.3658 -0.8810 0.3002
vn 0.7400 0.2890 0.6073
vn 0.2254 -0.9565 0.1850
vn 0.7693 0.0975 0.6314
vn 0.0761 0.9951 0.0625
vn 0.0761 -0.9951 0.0625
vn 0.7693 -0.0975 0.6314
vn 0.2254 0.9565 0.1850
vn 0.3002 -0.8810 0.3658
vn 0.6073 0.2890 0.7400
vn 0.1850 -0.9565 0.2254
vn 0.6314 0.0975 0.7693
vn 0.0625 0.9951 0.0761
vn 0.0625 -0.9951 0.0761
vn 0.6314 -0.0975 0.7693
vn 0.1850 0.9565 0.2254
vn 0.6073 -0.2890 0.7400
vn 0.3002 0.8810 0.3658
vn 0.5601 -0.4696 0.6825
vn 0.4036 0.7715 0.4918
vn 0.4913 -0.6326 0.5987
vn 0.4913 0.6326 0.5987
vn 0.4036 -0.7715 0.4918
vn 0.5601 0.4696 0.6825
vn 0.2230 0.8810 0.4173
vn 0.4162 -0.4696 0.7786
vn 0.2999 0.7715 0.5611
vn 0.3651 -0.6326 0.6831
vn 0.3651 0.6326 0.6831
vn 0.2999 -0.7715 0.5611
vn 0.4162 0.4696 0.7786
vn 0.2230 -0.8810 0.4173
vn 0.4513 0.2890 0.8443
vn 0.1374 -0.9565 0.2571
vn 0.4691 0.0975 0.8777
vn 0.0464 0.9951 0.0869
vn 0.0464 -0.9951 0.0869
vn 0.4691 -0.0975 0.8777
vn 0.1374 0.9565 0.2571
vn 0.4513 -0.2890 0.8443
vn 0.2779 0.2890 0.9161
vn 0.0846 -0.9565 0.2790
vn 0.2889 0.0975 0.9524
vn 0.0286 0.9951 0.0942
vn 0.0286 -0.9951 0.0942
vn 0.2889 -0.0975 0.9524
vn 0.0846 0.9565 0.2790
vn 0.2779 -0.2890 0.9161
vn 0.1374 0.8810 0.4528
vn 0.2563 -0.4696 0.8448
vn 0.1847 0.7715 0.6088
vn 0.2248 -0.6326 0.7412
vn 0.2248 0.6326 0.7412
vn 0.1847 -0.7715 0.6088
vn 0.2563 0.4696 0.8448
vn 0.1374 -0.8810 0.4528
vn 0.0865 -0.4696 0.8786
vn 0.0624 0.7715 0.6332
vn 0.0759 -0.6326 0.7708
vn 0.0759 0.6326 0.7708
vn 0.0624 -0.7715 0.6332
vn 0.0865 0.4696 0.8786
vn 0.0464 -0.8810 0.4709
vn 0.0938 0.2890 0.9527
vn 0.0286 -0.9565 0.2902
vn 0.0975 0.0975 0.9904
vn 0.0097 0.9951 0.0980
vn 0.0097 -0.9951 0.0980
vn 0.0975 -0.0975 0.9904
vn 0.0286 0.9565 0.2902
vn 0.0938 -0.2890 0.9527
vn 0.0464 0.8810 0.4709
vn -0.0286 -0.9565 0.2902
vn -0.0976 0.0975 0.9904
vn -0.0097 0.9951 0.0980
vn -0.0097 -0.9951 0.0980
vn -0.0976 -0.0975 0.9904
vn -0.0286 0.9565 0.2902
vn -0.0938 -0.2890 0.9527
vn -0.0464 0.8810 0.4709
vn -0.0865 -0.4696 0.8786
vn -0.0624 0.7715 0.6332
vn -0.0759 -0.6326 0.7708
vn -0.0759 0.6326 0.7708
vn -0.0624 -0.7715 0.6332
vn -0.0865 0.4696 0.8786
vn -0.0464 -0.8810 0.4709
vn -0.0938 0.2890 0.9527
vn -0.2248 -0.6326 0.7412
vn -0.2248 0.6326 0.7412
vn -0.1847 -0.7715 0.6088
vn -0.2563 0.4696 0.8448
vn -0.1374 -0.8810 0.4528
vn -0.2779 0.2890 0.9161
vn -0.0846 -0.9565 0.2790
vn -0.2889 0.0975 0.9524
vn -0.0286 0.9951 0.0942
vn -0.0286 -0.9951 0.0942
vn -0.2889 -0.0975 0.9524
vn -0.0846 0.9565 0.2790
vn -0.2779 -0.2890 0.9161
vn -0.1374 0.8810 0.4528
vn -0.2563 -0.4696 0.8448
vn -0.1847 0.7715 0.6088
vn -0.0464 0.9951 0.0869
vn -0.0464 -0.9951 0.0869
vn -0.4691 -0.0975 0.8777
vn -0.1374 0.9565 0.2571
vn -0.4513 -0.2890 0.8443
vn -0.2231 0.8810 0.4173
vn -0.4162 -0.4696 0.7786
vn -0.2999 0.7715 0.5611
vn -0.3651 -0.6326 0.6831
vn -0.3651 0.6326 0.6831
vn -0.2999 -0.7715 0.5611
vn -0.4162 0.4696 0.7786
vn -0.2231 -0.8810 0.4173
vn -0.4513 0.2890 0.8443
vn -0.1374 -0.9565 0.2571
vn -0.4691 0.0975 0.8777
vn -0.4913 0.6326 0.5987
vn -0.4036 -0.7715 0.4918
vn -0.5601 0.4696 0.6825
vn -0.3002 -0.8810 0.3658
vn -0.6073 0.2890 0.7400
vn -0.1850 -0.9565 0.2254
vn -0.6314 0.0975 0.7693
vn -0.0625 0.9951 0.0761
vn -0.0625 -0.9951 0.0761
vn -0.6314 -0.0975 0.7693
vn -0.1850 0.9565 0.2254
vn -0.6073 -0.2890 0.7400
vn -0.3002 0.8810 0.3658
vn -0.5601 -0.4696 0.6825
vn -0.4036 0.7715 0.4918
vn -0.4913 -0.6326 0.5987
vn -0.7693 -0.0975 0.6314
vn -0.2254 0.9565 0.1850
vn -0.7400 -0.2890 0.6073
vn -0.3658 0.8810 0.3002
vn -0.6825 -0.4696 0.5601
vn -0.4918 0.7715 0.4036
vn -0.5987 -0.6326 0.4913
vn -0.5987 0.6326 0.4913
vn -0.4918 -0.7715 0.4036
vn -0.6825 0.4696 0.5601
vn -0.3658 -0.8810 0.3002
vn -0.7400 0.2890 0.6073
vn -0.2254 -0.9565 0.1850
vn -0.7693 0.0975 0.6314
vn -0.0761 0.9951 0.0625
vn -0.0761 -0.9951 0.0625
vn -0.5611 -0.7715 0.2999
vn -0.7786 0.4696 0.4162
vn -0.4173 -0.8810 0.2230
vn -0.8443 0.2890 0.4513
vn -0.2571 -0.9565 0.1374
vn -0.8777 0.0975 0.4691
vn -0.0869 0.9951 0.0464
vn -0.0869 -0.9951 0.0464
vn -0.8777 -0.0975 0.4691
vn -0.2571 0.9565 0.1374
vn -0.8443 -0.2890 0.4513
vn -0.4173 0.8810 0.2230
vn -0.7786 -0.4696 0.4162
vn -0.5611 0.7715 0.2999
vn -0.6831 -0.6326 0.3651
vn -0.6831 0.6326 0.3651
vn -0.2790 0.9565 0.0846
vn -0.9161 -0.2890 0.2779
vn -0.4528 0.8810 0.1374
vn -0.8448 -0.4696 0.2563
vn -0.6088 0.7715 0.1847
vn -0.7412 -0.6326 0.2248
vn -0.7412 0.6326 0.2248
vn -0.6088 -0.7715 0.1847
vn -0.8448 0.4696 0.2563
vn -0.4528 -0.8810 0.1374
vn -0.9161 0.2890 0.2779
vn -0.2790 -0.9565 0.0846
vn -0.9524 0.0975 0.2889
vn -0.0942 0.9951 0.0286
vn -0.0942 -0.9951 0.0286
vn -0.9524 -0.0975 0.2889
vn -0.8786 0.4696 0.0865
vn -0.4709 -0.8810 0.0464
vn -0.9527 0.2890 0.0938
vn -0.2902 -0.9565 0.0286
vn -0.9904 0.0975 0.0975
vn -0.0980 0.9951 0.0097
vn -0.0980 -0.9951 0.0097
vn -0.9904 -0.0975 0.0975
vn -0.2902 0.9565 0.0286
vn -0.9527 -0.2890 0.0938
vn -0.4709 0.8810 0.0464
vn -0.8786 -0.4696 0.0865
vn -0.6332 0.7715 0.0624
vn -0.7708 -0.6326 0.0759
vn -0.7708 0.6326 0.0759
vn -0.6332 -0.7715 0.0624
vn -0.9527 -0.2890 -0.0938
vn -0.4709 0.8810 -0.0464
vn -0.8786 -0.4696 -0.0865
vn -0.6332 0.7715 -0.0624
vn -0.7708 -0.6326 -0.0759
vn -0.7708 0.6326 -0.0759
vn -0.6332 -0.7715 -0.0624
vn -0.8786 0.4696 -0.0865
vn -0.4709 -0.8810 -0.0464
vn -0.9527 0.2890 -0.0938
vn -0.2902 -0.9565 -0.0286
vn -0.9904 0.0975 -0.0976
vn -0.0980 0.9951 -0.0097
vn -0.0980 -0.9951 -0.0097
vn -0.9904 -0.0975 -0.0976
vn -0.2902 0.9565 -0.0286
vn -0.4528 -0.8810 -0.1374
vn -0.9161 0.2890 -0.2779
vn -0.2790 -0.9565 -0.0846
vn -0.9524 0.0975 -0.2889
vn -0.0942 0.9951 -0.0286
vn -0.0942 -0.9951 -0.0286
vn -0.9524 -0.0975 -0.2889
vn -0.2790 0.9565 -0.0846
vn -0.9161 -0.2890 -0.2779
vn -0.4528 0.8810 -0.1374
vn -0.8448 -0.4696 -0.2563
vn -0.6088 0.7715 -0.1847
vn -0.7412 -0.6326 -0.2248
vn -0.7412 0.6326 -0.2248
vn -0.6088 -0.7715 -0.1847
vn -0.8448 0.4696 -0.2563
vn -0.7786 -0.4696 -0.4162
vn -0.5611 0.7715 -0.2999
vn -0.6831 -0.6326 -0.3651
vn -0.6831 0.6326 -0.3651
vn -0.5611 -0.7715 -0.2999
vn -0.7786 0.4696 -0.4162
vn -0.4173 -0.8810 -0.2230
vn -0.8443 0.2890 -0.4513
vn -0.2571 -0.9565 -0.1374
vn -0.8777 0.0975 -0.4691
vn -0.0869 0.9951 -0.0464
vn -0.0869 -0.9951 -0.0464
vn -0.8777 -0.0975 -0.4691
vn -0.2571 0.9565 -0.1374
vn -0.8443 -0.2890 -0.4513
vn -0.4173 0.8810 -0.2230
vn -0.2254 -0.9565 -0.1850
vn -0.7693 0.0975 -0.6314
vn -0.0761 0.9951 -0.0625
vn -0.0761 -0.9951 -0.0625
vn -0.7693 -0.0975 -0.6314
vn -0.2254 0.9565 -0.1850
vn -0.7400 -0.2890 -0.6073
vn -0.3658 0.8810 -0.3002
vn -0.6825 -0.4696 -0.5601
vn -0.4918 0.7715 -0.4036
vn -0.5987 -0.6326 -0.4913
vn -0.5987 0.6326 -0.4913
vn -0.4918 -0.7715 -0.4036
vn -0.6825 0.4696 -0.5601
vn -0.3658 -0.8810 -0.3002
vn -0.7400 0.2890 -0.6073
vn -0.4036 0.7715 -0.4918
vn -0.4913 -0.6326 -0.5987
vn -0.4913 0.6326 -0.5987
vn -0.4036 -0.7715 -0.4918
vn -0.5601 0.4696 -0.6825
vn -0.3002 -0.8810 -0.3658
vn -0.6073 0.2890 -0.7400
vn -0.1850 -0.9565 -0.2254
vn -0.6314 0.0975 -0.7693
vn -0.0625 0.9951 -0.0761
vn -0.0625 -0.9951 -0.0761
vn -0.6314 -0.0975 -0.7693
vn -0.1850 0.9565 -0.2254
vn -0.6073 -0.2890 -0.7400
vn -0.3002 0.8810 -0.3658
vn -0.5601 -0.4696 -0.6825
vn -0.4691 0.0975 -0.8777
vn -0.0464 0.9951 -0.0869
vn -0.0464 -0.9951 -0.0869
vn -0.4691 -0.0975 -0.8777
vn -0.1374 0.9565 -0.2571
vn -0.4513 -0.2890 -0.8443
vn -0.2231 0.8810 -0.4173
vn -0.4162 -0.4696 -0.7786
vn -0.2999 0.7715 -0.5611
vn -0.3651 -0.6326 -0.6831
vn -0.3651 0.6326 -0.6831
vn -0.2999 -0.7715 -0.5611
vn -0.4162 0.4696 -0.7786
vn -0.2230 -0.8810 -0.4173
vn -0.4513 0.2890 -0.8443
vn -0.1374 -0.9565 -0.2571
vn -0.2248 -0.6326 -0.7412
vn -0.2248 0.6326 -0.7412
vn -0.1847 -0.7715 -0.6088
vn -0.2563 0.4696 -0.8448
vn -0.1374 -0.8810 -0.4528
vn -0.2779 0.2890 -0.9161
vn -0.0846 -0.9565 -0.2790
vn -0.2889 0.0975 -0.9524
vn -0.0286 0.9951 -0.0942
vn -0.0286 -0.9951 -0.0942
vn -0.2889 -0.0975 -0.9524
vn -0.0846 0.9565 -0.2790
vn -0.2779 -0.2890 -0.9161
vn -0.1374 0.8810 -0.4528
vn -0.2563 -0.4696 -0.8448
vn -0.1847 0.7715 -0.6088
vn -0.0097 0.9951 -0.0980
vn -0.0097 -0.9951 -0.0980
vn -0.0975 -0.0975 -0.9904
vn -0.0286 0.9565 -0.2902
vn -0.0938 -0.2890 -0.9527
vn -0.0464 0.8810 -0.4709
vn -0.0865 -0.4696 -0.8786
vn -0.0624 0.7715 -0.6332
vn -0.0759 -0.6326 -0.7708
vn -0.0759 0.6326 -0.7708
vn -0.0624 -0.7715 -0.6332
vn -0.0865 0.4696 -0.8786
vn -0.0464 -0.8810 -0.4709
vn -0.0938 0.2890 -0.9527
vn -0.0286 -0.9565 -0.2902
vn -0.0976 0.0975 -0.9904
usemtl None
s off
f 477/1/1 7/2/1 17/3/1 18/4/1
f 1/5/2 326/6/2 11/7/2
f 482/8/3 481/9/3 25/10/3
f 478/11/4 477/1/4 18/4/4 19/12/4
f 2/13/5 1/5/5 11/7/5 12/14/5
f 479/15/6 478/11/6 19/12/6 20/16/6
f 3/17/7 2/13/7 12/14/7 13/18/7
f 8/19/8 479/15/8 20/16/8 21/20/8
f 4/21/9 3/17/9 13/18/9 14/22/9
f 9/23/10 8/19/10 21/20/10 22/24/10
f 5/25/11 4/21/11 14/22/11 15/26/11
f 10/27/12 9/23/12 22/24/12 23/28/12
f 6/29/13 5/25/13 15/26/13 16/30/13
f 480/31/14 10/27/14 23/28/14 24/32/14
f 7/2/15 6/29/15 16/30/15 17/3/15
f 481/9/16 480/31/16 24/32/16 25/10/16
f 17/3/17 16/30/17 31/33/17 32/34/17
f 25/10/18 24/32/18 39/35/18 40/36/18
f 18/4/19 17/3/19 32/34/19 33/37/19
f 11/7/20 326/38/20 26/39/20
f 482/40/21 25/10/21 40/36/21
f 19/12/22 18/4/22 33/37/22 34/41/22
f 12/14/23 11/7/23 26/39/23 27/42/23
f 20/16/24 19/12/24 34/41/24 35/43/24
f 13/18/25 12/14/25 27/42/25 28/44/25
f 21/20/26 20/16/26 35/43/26 36/45/26
f 14/22/27 13/18/27 28/44/27 29/46/27
f 22/24/28 21/20/28 36/45/28 37/47/28
f 15/26/29 14/22/29 29/46/29 30/48/29
f 23/28/30 22/24/30 37/47/30 38/49/30
f 16/30/31 15/26/31 30/48/31 31/33/31
f 24/32/32 23/28/32 38/49/32 39/35/32
f 36/45/33 35/43/33 50/50/33 51/51/33
f 29/46/34 28/44/34 43/52/34 44/53/34
f 37/47/35 36/45/35 51/51/35 52/54/35
f 30/48/36 29/46/36 44/53/36 45/55/36
f 38/49/37 37/47/37 52/54/37 53/56/37
f 31/33/38 30/48/38 45/55/38 46/57/38
f 39/35/39 38/49/39 53/56/39 54/58/39
f 32/34/40 31/33/40 46/57/40 47/59/40
f 40/36/41 39/35/41 54/58/41 55/60/41
f 33/37/42 32/34/42 47/59/42 48/61/42
f 26/39/43 326/62/43 41/63/43
f 482/64/44 40/36/44 55/60/44
f 34/41/45 33/37/45 48/61/45 49/65/45
f 27/42/46 26/39/46 41/63/46 42/66/46
f 35/43/47 34/41/47 49/65/47 50/50/47
f 28/44/48 27/42/48 42/66/48 43/52/48
f 55/60/49 54/58/49 69/67/49 70/68/49
f 48/61/50 47/59/50 62/69/50 63/70/50
f 41/63/51 326/71/51 56/72/51
f 482/73/52 55/60/52 70/68/52
f 49/65/53 48/61/53 63/70/53 64/74/53
f 42/66/54 41/63/54 56/72/54 57/75/54
f 50/50/55 49/65/55 64/74/55 65/76/55
f 43/52/56 42/66/56 57/75/56 58/77/56
f 51/51/57 50/50/57 65/76/57 66/78/57
f 44/53/58 43/52/58 58/77/58 59/79/58
f 52/54/59 51/51/59 66/78/59 67/80/59
f 45/55/60 44/53/60 59/79/60 60/81/60
f 53/56/61 52/54/61 67/80/61 68/82/61
f 46/57/62 45/55/62 60/81/62 61/83/62
f 54/58/63 53/56/63 68/82/63 69/67/63
f 47/59/64 46/57/64 61/83/64 62/69/64
f 59/79/65 58/77/65 73/84/65 74/85/65
f 67/80/66 66/78/66 81/86/66 82/87/66
f 60/81/67 59/79/67 74/85/67 75/88/67
f 68/82/68 67/80/68 82/87/68 83/89/68
f 61/83/69 60/81/69 75/88/69 76/90/69
f 69/67/70 68/82/70 83/89/70 84/91/70
f 62/69/71 61/83/71 76/90/71 77/92/71
f 70/68/72 69/67/72 84/91/72 85/93/72
f 63/70/73 62/69/73 77/92/73 78/94/73
f 56/72/74 326/95/74 71/96/74
f 482/97/75 70/68/75 85/93/75
f 64/74/76 63/70/76 78/94/76 79/98/76
f 57/75/77 56/72/77 71/96/77 72/99/77
f 65/76/78 64/74/78 79/98/78 80/100/78
f 58/77/79 57/75/79 72/99/79 73/84/79
f 66/78/80 65/76/80 80/100/80 81/86/80
f 78/94/81 77/92/81 92/101/81 93/102/81
f 71/96/82 326/103/82 86/104/82
f 482/105/83 85/93/83 100/106/83
f 79/98/84 78/94/84 93/102/84 94/107/84
f 72/99/85 71/96/85 86/104/85 87/108/85
f 80/100/86 79/98/86 94/107/86 95/109/86
f 73/84/87 72/99/87 87/108/87 88/110/87
f 81/86/88 80/100/88 95/109/88 96/111/88
f 74/85/89 73/84/89 88/110/89 89/112/89
f 82/87/90 81/86/90 96/111/90 97/113/90
f 75/88/91 74/85/91 89/112/91 90/114/91
f 83/89/92 82/87/92 97/113/92 98/115/92
f 76/90/93 75/88/93 90/114/93 91/116/93
f 84/91/94 83/89/94 98/115/94 99/117/94
f 77/92/95 76/90/95 91/116/95 92/101/95
f 85/93/96 84/91/96 99/117/96 100/106/96
f 97/113/97 96/111/97 111/118/97 112/119/97
f 90/114/98 89/112/98 104/120/98 105/121/98
f 98/115/99 97/113/99 112/119/99 113/122/99
f 91/116/100 90/114/100 105/121/100 106/123/100
f 99/117/101 98/115/101 113/122/101 114/124/101
f 92/101/102 91/116/102 106/123/102 107/125/102
f 100/106/103 99/117/103 114/124/103 115/126/103
f 93/102/104 92/101/104 107/125/104 108/127/104
f 86/104/105 326/128/105 101/129/105
f 482/130/106 100/106/106 115/126/106
f 94/107/107 93/102/107 108/127/107 109/131/107
f 87/108/108 86/104/108 101/129/108 102/132/108
f 95/109/109 94/107/109 109/131/109 110/133/109
f 88/110/110 87/108/110 102/132/110 103/134/110
f 96/111/111 95/109/111 110/133/111 111/118/111
f 89/112/112 88/110/112 103/134/112 104/120/112
f 482/135/113 115/126/113 130/136/113
f 109/131/114 108/127/114 123/137/114 124/138/114
f 102/132/115 101/129/115 116/139/115 117/140/115
f 110/133/116 109/131/116 124/138/116 125/141/116
f 103/134/117 102/132/117 117/140/117 118/142/117
f 111/118/118 110/133/118 125/141/118 126/143/118
f 104/120/119 103/134/119 118/142/119 119/144/119
f 112/119/120 111/118/120 126/143/120 127/145/120
f 105/121/121 104/120/121 119/144/121 120/146/121
f 113/122/122 112/119/122 127/145/122 128/147/122
f 106/123/123 105/121/123 120/146/123 121/148/123
f 114/124/124 113/122/124 128/147/124 129/149/124
f 107/125/125 106/123/125 121/148/125 122/150/125
f 115/126/126 114/124/126 129/149/126 130/136/126
f 108/127/127 107/125/127 122/150/127 123/137/127
f 101/129/128 326/151/128 116/139/128
f 128/147/129 127/145/129 142/152/129 143/153/129
f 121/148/130 120/146/130 135/154/130 136/155/130
f 129/149/131 128/147/131 143/153/131 144/156/131
f 122/150/132 121/148/132 136/155/132 137/157/132
f 130/136/133 129/149/133 144/156/133 145/158/133
f 123/137/134 122/150/134 137/157/134 138/159/134
f 116/139/135 326/160/135 131/161/135
f 482/162/136 130/136/136 145/158/136
f 124/138/137 123/137/137 138/159/137 139/163/137
f 117/140/138 116/139/138 131/161/138 132/164/138
f 125/141/139 124/138/139 139/163/139 140/165/139
f 118/142/140 117/140/140 132/164/140 133/166/140
f 126/143/141 125/141/141 140/165/141 141/167/141
f 119/144/142 118/142/142 133/166/142 134/168/142
f 127/145/143 126/143/143 141/167/143 142/152/143
f 120/146/144 119/144/144 134/168/144 135/154/144
f 132/164/145 131/161/145 146/169/145 147/170/145
f 140/165/146 139/163/146 154/171/146 155/172/146
f 133/166/147 132/164/147 147/170/147 148/173/147
f 141/167/148 140/165/148 155/172/148 156/174/148
f 134/168/149 133/166/149 148/173/149 149/175/149
f 142/152/150 141/167/150 156/174/150 157/176/150
f 135/154/151 134/168/151 149/175/151 150/177/151
f 143/153/152 142/152/152 157/176/152 158/178/152
f 136/155/153 135/154/153 150/177/153 151/179/153
f 144/156/154 143/153/154 158/178/154 159/180/154
f 137/157/155 136/155/155 151/179/155 152/181/155
f 145/158/156 144/156/156 159/180/156 160/182/156
f 138/159/157 137/157/157 152/181/157 153/183/157
f 131/161/158 326/184/158 146/169/158
f 482/185/159 145/158/159 160/182/159
f 139/163/160 138/159/160 153/183/160 154/171/160
f 151/179/161 150/177/161 165/186/161 166/187/161
f 159/180/162 158/178/162 173/188/162 174/189/162
f 152/181/163 151/179/163 166/187/163 167/190/163
f 160/182/164 159/180/164 174/189/164 175/191/164
f 153/183/165 152/181/165 167/190/165 168/192/165
f 146/169/166 326/193/166 161/194/166
f 482/195/167 160/182/167 175/191/167
f 154/171/168 153/183/168 168/192/168 169/196/168
f 147/170/169 146/169/169 161/194/169 162/197/169
f 155/172/170 154/171/170 169/196/170 170/198/170
f 148/173/171 147/170/171 162/197/171 163/199/171
f 156/174/172 155/172/172 170/198/172 171/200/172
f 149/175/173 148/173/173 163/199/173 164/201/173
f 157/176/174 156/174/174 171/200/174 172/202/174
f 150/177/175 149/175/175 164/201/175 165/186/175
f 158/178/176 157/176/176 172/202/176 173/188/176
f 170/198/177 169/196/177 184/203/177 185/204/177
f 163/199/178 162/197/178 177/205/178 178/206/178
f 171/200/179 170/198/179 185/204/179 186/207/179
f 164/201/180 163/199/180 178/206/180 179/208/180
f 172/202/181 171/200/181 186/207/181 187/209/181
f 165/186/182 164/201/182 179/208/182 180/210/182
f 173/188/183 172/202/183 187/209/183 188/211/183
f 166/187/184 165/186/184 180/210/184 181/212/184
f 174/189/185 173/188/185 188/211/185 189/213/185
f 167/190/186 166/187/186 181/212/186 182/214/186
f 175/191/187 174/189/187 189/213/187 190/215/187
f 168/192/188 167/190/188 182/214/188 183/216/188
f 161/194/189 326/217/189 176/218/189
f 482/219/190 175/191/190 190/215/190
f 169/196/191 168/192/191 183/216/191 184/203/191
f 162/197/192 161/194/192 176/218/192 177/205/192
f 189/213/193 188/211/193 203/220/193 204/221/193
f 182/214/194 181/212/194 196/222/194 197/223/194
f 190/215/195 189/213/195 204/221/195 205/224/195
f 183/216/196 182/214/196 197/223/196 198/225/196
f 176/218/197 326/226/197 191/227/197
f 482/228/198 190/215/198 205/224/198
f 184/203/199 183/216/199 198/225/199 199/229/199
f 177/205/200 176/218/200 191/227/200 192/230/200
f 185/204/201 184/203/201 199/229/201 200/231/201
f 178/206/202 177/205/202 192/230/202 193/232/202
f 186/207/203 185/204/203 200/231/203 201/233/203
f 179/208/204 178/206/204 193/232/204 194/234/204
f 187/209/205 186/207/205 201/233/205 202/235/205
f 180/210/206 179/208/206 194/234/206 195/236/206
f 188/211/207 187/209/207 202/235/207 203/220/207
f 181/212/208 180/210/208 195/236/208 196/222/208
f 193/232/209 192/230/209 207/237/209 208/238/209
f 201/233/210 200/231/210 215/239/210 216/240/210
f 194/234/211 193/232/211 208/238/211 209/241/211
f 202/235/212 201/233/212 216/240/212 217/242/212
f 195/236/213 194/234/213 209/241/213 210/243/213
f 203/220/214 202/235/214 217/242/214 218/244/214
f 196/222/215 195/236/215 210/243/215 211/245/215
f 204/221/216 203/220/216 218/244/216 219/246/216
f 197/223/217 196/222/217 211/245/217 212/247/217
f 205/224/218 204/221/218 219/246/218 220/248/218
f 198/225/219 197/223/219 212/247/219 213/249/219
f 191/227/220 326/250/220 206/251/220
f 482/252/221 205/224/221 220/248/221
f 199/229/222 198/225/222 213/249/222 214/253/222
f 192/230/223 191/227/223 206/251/223 207/237/223
f 200/231/224 199/229/224 214/253/224 215/239/224
f 212/247/225 211/245/225 226/254/225 227/255/225
f 220/248/226 219/246/226 234/256/226 235/257/226
f 213/249/227 212/247/227 227/255/227 228/258/227
f 206/251/228 326/259/228 221/260/228
f 482/261/229 220/248/229 235/257/229
f 214/253/230 213/249/230 228/258/230 229/262/230
f 207/237/231 206/251/231 221/260/231 222/263/231
f 215/239/232 214/253/232 229/262/232 230/264/232
f 208/238/233 207/237/233 222/263/233 223/265/233
f 216/240/234 215/239/234 230/264/234 231/266/234
f 209/241/235 208/238/235 223/265/235 224/267/235
f 217/242/236 216/240/236 231/266/236 232/268/236
f 210/243/237 209/241/237 224/267/237 225/269/237
f 218/244/238 217/242/238 232/268/238 233/270/238
f 211/245/239 210/243/239 225/269/239 226/254/239
f 219/246/240 218/244/240 233/270/240 234/256/240
f 231/266/241 230/264/241 245/271/241 246/272/241
f 224/267/242 223/265/242 238/273/242 239/274/242
f 232/268/243 231/266/243 246/272/243 247/275/243
f 225/269/244 224/267/244 239/274/244 240/276/244
f 233/270/245 232/268/245 247/275/245 248/277/245
f 226/254/246 225/269/246 240/276/246 241/278/246
f 234/256/247 233/270/247 248/277/247 249/279/247
f 227/255/248 226/254/248 241/278/248 242/280/248
f 235/257/249 234/256/249 249/279/249 250/281/249
f 228/258/250 227/255/250 242/280/250 243/282/250
f 221/260/251 326/283/251 236/284/251
f 482/285/252 235/257/252 250/281/252
f 229/262/253 228/258/253 243/282/253 244/286/253
f 222/263/254 221/260/254 236/284/254 237/287/254
f 230/264/255 229/262/255 244/286/255 245/271/255
f 223/265/256 222/263/256 237/287/256 238/273/256
f 250/281/257 249/279/257 264/288/257 265/289/257
f 243/282/258 242/280/258 257/290/258 258/291/258
f 236/284/259 326/292/259 251/293/259
f 482/294/260 250/281/260 265/289/260
f 244/286/261 243/282/261 258/291/261 259/295/261
f 237/287/262 236/284/262 251/293/262 252/296/262
f 245/271/263 244/286/263 259/295/263 260/297/263
f 238/273/264 237/287/264 252/296/264 253/298/264
f 246/272/265 245/271/265 260/297/265 261/299/265
f 239/274/266 238/273/266 253/298/266 254/300/266
f 247/275/267 246/272/267 261/299/267 262/301/267
f 240/276/268 239/274/268 254/300/268 255/302/268
f 248/277/269 247/275/269 262/301/269 263/303/269
f 241/278/270 240/276/270 255/302/270 256/304/270
f 249/279/271 248/277/271 263/303/271 264/288/271
f 242/280/272 241/278/272 256/304/272 257/290/272
f 262/301/273 261/299/273 276/305/273 277/306/273
f 255/302/274 254/300/274 269/307/274 270/308/274
f 263/303/275 262/301/275 277/306/275 278/309/275
f 256/304/276 255/302/276 270/308/276 271/310/276
f 264/288/277 263/303/277 278/309/277 279/311/277
f 257/290/278 256/304/278 271/310/278 272/312/278
f 265/289/279 264/288/279 279/311/279 280/313/279
f 258/291/280 257/290/280 272/312/280 273/314/280
f 251/293/281 326/315/281 266/316/281
f 482/317/282 265/289/282 280/313/282
f 259/295/283 258/291/283 273/314/283 274/318/283
f 252/296/284 251/293/284 266/316/284 267/319/284
f 260/297/285 259/295/285 274/318/285 275/320/285
f 253/298/286 252/296/286 267/319/286 268/321/286
f 261/299/287 260/297/287 275/320/287 276/305/287
f 254/300/288 253/298/288 268/321/288 269/307/288
f 266/316/289 326/322/289 281/323/289
f 482/324/290 280/313/290 295/325/290
f 274/318/291 273/314/291 288/326/291 289/327/291
f 267/319/292 266/316/292 281/323/292 282/328/292
f 275/320/293 274/318/293 289/327/293 290/329/293
f 268/321/294 267/319/294 282/328/294 283/330/294
f 276/305/295 275/320/295 290/329/295 291/331/295
f 269/307/296 268/321/296 283/330/296 284/332/296
f 277/306/297 276/305/297 291/331/297 292/333/297
f 270/308/298 269/307/298 284/332/298 285/334/298
f 278/309/299 277/306/299 292/333/299 293/335/299
f 271/310/300 270/308/300 285/334/300 286/336/300
f 279/311/301 278/309/301 293/335/301 294/337/301
f 272/312/302 271/310/302 286/336/302 287/338/302
f 280/313/303 279/311/303 294/337/303 295/325/303
f 273/314/304 272/312/304 287/338/304 288/326/304
f 285/334/305 284/332/305 299/339/305 300/340/305
f 293/335/306 292/333/306 307/341/306 308/342/306
f 286/336/307 285/334/307 300/340/307 301/343/307
f 294/337/308 293/335/308 308/342/308 309/344/308
f 287/338/309 286/336/309 301/343/309 302/345/309
f 295/325/310 294/337/310 309/344/310 310/346/310
f 288/326/311 287/338/311 302/345/311 303/347/311
f 281/323/312 326/348/312 296/349/312
f 482/350/313 295/325/313 310/346/313
f 289/327/314 288/326/314 303/347/314 304/351/314
f 282/328/315 281/323/315 296/349/315 297/352/315
f 290/329/316 289/327/316 304/351/316 305/353/316
f 283/330/317 282/328/317 297/352/317 298/354/317
f 291/331/318 290/329/318 305/353/318 306/355/318
f 284/332/319 283/330/319 298/354/319 299/339/319
f 292/333/320 291/331/320 306/355/320 307/341/320
f 304/351/321 303/347/321 318/356/321 319/357/321
f 297/352/322 296/349/322 311/358/322 312/359/322
f 305/353/323 304/351/323 319/357/323 320/360/323
f 298/354/324 297/352/324 312/359/324 313/361/324
f 306/355/325 305/353/325 320/360/325 321/362/325
f 299/339/326 298/354/326 313/361/326 314/363/326
f 307/341/327 306/355/327 321/362/327 322/364/327
f 300/340/328 299/339/328 314/363/328 315/365/328
f 308/342/329 307/341/329 322/364/329 323/366/329
f 301/343/330 300/340/330 315/365/330 316/367/330
f 309/344/331 308/342/331 323/366/331 324/368/331
f 302/345/332 301/343/332 316/367/332 317/369/332
f 310/346/333 309/344/333 324/368/333 325/370/333
f 303/347/334 302/345/334 317/369/334 318/356/334
f 296/349/335 326/371/335 311/358/335
f 482/372/336 310/346/336 325/370/336
f 323/366/337 322/364/337 338/373/337 339/374/337
f 316/367/338 315/365/338 331/375/338 332/376/338
f 324/368/339 323/366/339 339/374/339 340/377/339
f 317/369/340 316/367/340 332/376/340 333/378/340
f 325/370/341 324/368/341 340/377/341 341/379/341
f 318/356/342 317/369/342 333/378/342 334/380/342
f 311/358/343 326/381/343 327/382/343
f 482/383/344 325/370/344 341/379/344
f 319/357/345 318/356/345 334/380/345 335/384/345
f 312/359/346 311/358/346 327/382/346 328/385/346
f 320/360/347 319/357/347 335/384/347 336/386/347
f 313/361/348 312/359/348 328/385/348 329/387/348
f 321/362/349 320/360/349 336/386/349 337/388/349
f 314/363/350 313/361/350 329/387/350 330/389/350
f 322/364/351 321/362/351 337/388/351 338/373/351
f 315/365/352 314/363/352 330/389/352 331/375/352
f 328/385/353 327/382/353 342/390/353 343/391/353
f 336/386/354 335/384/354 350/392/354 351/393/354
f 329/387/355 328/385/355 343/391/355 344/394/355
f 337/388/356 336/386/356 351/393/356 352/395/356
f 330/389/357 329/387/357 344/394/357 345/396/357
f 338/373/358 337/388/358 352/395/358 353/397/358
f 331/375/359 330/389/359 345/396/359 346/398/359
f 339/374/360 338/373/360 353/397/360 354/399/360
f 332/376/361 331/375/361 346/398/361 347/400/361
f 340/377/362 339/374/362 354/399/362 355/401/362
f 333/378/363 332/376/363 347/400/363 348/402/363
f 341/379/364 340/377/364 355/401/364 356/403/364
f 334/380/365 333/378/365 348/402/365 349/404/365
f 327/382/366 326/405/366 342/390/366
f 482/406/367 341/379/367 356/403/367
f 335/384/368 334/380/368 349/404/368 350/392/368
f 347/400/369 346/398/369 361/407/369 362/408/369
f 355/401/370 354/399/370 369/409/370 370/410/370
f 348/402/371 347/400/371 362/408/371 363/411/371
f 356/403/372 355/401/372 370/410/372 371/412/372
f 349/404/373 348/402/373 363/411/373 364/413/373
f 342/390/374 326/414/374 357/415/374
f 482/416/375 356/403/375 371/412/375
f 350/392/376 349/404/376 364/413/376 365/417/376
f 343/391/377 342/390/377 357/415/377 358/418/377
f 351/393/378 350/392/378 365/417/378 366/419/378
f 344/394/379 343/391/379 358/418/379 359/420/379
f 352/395/380 351/393/380 366/419/380 367/421/380
f 345/396/381 344/394/381 359/420/381 360/422/381
f 353/397/382 352/395/382 367/421/382 368/423/382
f 346/398/383 345/396/383 360/422/383 361/407/383
f 354/399/384 353/397/384 368/423/384 369/409/384
f 366/424/385 365/425/385 380/426/385 381/427/385
f 359/428/386 358/429/386 373/430/386 374/431/386
f 367/432/387 366/424/387 381/427/387 382/433/387
f 360/434/388 359/428/388 374/431/388 375/435/388
f 368/436/389 367/432/389 382/433/389 383/437/389
f 361/438/390 360/434/390 375/435/390 376/439/390
f 369/440/391 368/436/391 383/437/391 384/441/391
f 362/442/392 361/438/392 376/439/392 377/443/392
f 370/444/393 369/440/393 384/441/393 385/445/393
f 363/446/394 362/442/394 377/443/394 378/447/394
f 371/448/395 370/444/395 385/445/395 386/449/395
f 364/450/396 363/446/396 378/447/396 379/451/396
f 357/452/397 326/453/397 372/454/397
f 482/455/398 371/448/398 386/449/398
f 365/425/399 364/450/399 379/451/399 380/426/399
f 358/429/400 357/452/400 372/454/400 373/430/400
f 385/445/401 384/441/401 399/456/401 400/457/401
f 378/447/402 377/443/402 392/458/402 393/459/402
f 386/449/403 385/445/403 400/457/403 401/460/403
f 379/451/404 378/447/404 393/459/404 394/461/404
f 372/454/405 326/462/405 387/463/405
f 482/464/406 386/449/406 401/460/406
f 380/426/407 379/451/407 394/461/407 395/465/407
f 373/430/408 372/454/408 387/463/408 388/466/408
f 381/427/409 380/426/409 395/465/409 396/467/409
f 374/431/410 373/430/410 388/466/410 389/468/410
f 382/433/411 381/427/411 396/467/411 397/469/411
f 375/435/412 374/431/412 389/468/412 390/470/412
f 383/437/413 382/433/413 397/469/413 398/471/413
f 376/439/414 375/435/414 390/470/414 391/472/414
f 384/441/415 383/437/415 398/471/415 399/456/415
f 377/443/416 376/439/416 391/472/416 392/458/416
f 397/469/417 396/467/417 411/473/417 412/474/417
f 390/470/418 389/468/418 404/475/418 405/476/418
f 398/471/419 397/469/419 412/474/419 413/477/419
f 391/472/420 390/470/420 405/476/420 406/478/420
f 399/456/421 398/471/421 413/477/421 414/479/421
f 392/458/422 391/472/422 406/478/422 407/480/422
f 400/457/423 399/456/423 414/479/423 415/481/423
f 393/459/424 392/458/424 407/480/424 408/482/424
f 401/460/425 400/457/425 415/481/425 416/483/425
f 394/461/426 393/459/426 408/482/426 409/484/426
f 387/463/427 326/485/427 402/486/427
f 482/487/428 401/460/428 416/483/428
f 395/465/429 394/461/429 409/484/429 410/488/429
f 388/466/430 387/463/430 402/486/430 403/489/430
f 396/467/431 395/465/431 410/488/431 411/473/431
f 389/468/432 388/466/432 403/489/432 404/475/432
f 416/483/433 415/481/433 430/490/433 431/491/433
f 409/484/434 408/482/434 423/492/434 424/493/434
f 402/486/435 326/494/435 417/495/435
f 482/496/436 416/483/436 431/491/436
f 410/488/437 409/484/437 424/493/437 425/497/437
f 403/489/438 402/486/438 417/495/438 418/498/438
f 411/473/439 410/488/439 425/497/439 426/499/439
f 404/475/440 403/489/440 418/498/440 419/500/440
f 412/474/441 411/473/441 426/499/441 427/501/441
f 405/476/442 404/475/442 419/500/442 420/502/442
f 413/477/443 412/474/443 427/501/443 428/503/443
f 406/478/444 405/476/444 420/502/444 421/504/444
f 414/479/445 413/477/445 428/503/445 429/505/445
f 407/480/446 406/478/446 421/504/446 422/506/446
f 415/481/447 414/479/447 429/505/447 430/490/447
f 408/482/448 407/480/448 422/506/448 423/492/448
f 420/502/449 419/500/449 434/507/449 435/508/449
f 428/503/450 427/501/450 442/509/450 443/510/450
f 421/504/451 420/502/451 435/508/451 436/511/451
f 429/505/452 428/503/452 443/510/452 444/512/452
f 422/506/453 421/504/453 436/511/453 437/513/453
f 430/490/454 429/505/454 444/512/454 445/514/454
f 423/492/455 422/506/455 437/513/455 438/515/455
f 431/491/456 430/490/456 445/514/456 446/516/456
f 424/493/457 423/492/457 438/515/457 439/517/457
f 417/495/458 326/518/458 432/519/458
f 482/520/459 431/491/459 446/516/459
f 425/497/460 424/493/460 439/517/460 440/521/460
f 418/498/461 417/495/461 432/519/461 433/522/461
f 426/499/462 425/497/462 440/521/462 441/523/462
f 419/500/463 418/498/463 433/522/463 434/507/463
f 427/501/464 426/499/464 441/523/464 442/509/464
f 439/517/465 438/515/465 453/524/465 454/525/465
f 432/519/466 326/526/466 447/527/466
f 482/528/467 446/516/467 461/529/467
f 440/521/468 439/517/468 454/525/468 455/530/468
f 433/522/469 432/519/469 447/527/469 448/531/469
f 441/523/470 440/521/470 455/530/470 456/532/470
f 434/507/471 433/522/471 448/531/471 449/533/471
f 442/509/472 441/523/472 456/532/472 457/534/472
f 435/508/473 434/507/473 449/533/473 450/535/473
f 443/510/474 442/509/474 457/534/474 458/536/474
f 436/511/475 435/508/475 450/535/475 451/537/475
f 444/512/476 443/510/476 458/536/476 459/538/476
f 437/513/477 436/511/477 451/537/477 452/539/477
f 445/514/478 444/512/478 459/538/478 460/540/478
f 438/515/479 437/513/479 452/539/479 453/524/479
f 446/516/480 445/514/480 460/540/480 461/529/480
f 458/536/481 457/534/481 472/541/481 473/542/481
f 451/537/482 450/535/482 465/543/482 466/544/482
f 459/538/483 458/536/483 473/542/483 474/545/483
f 452/539/484 451/537/484 466/544/484 467/546/484
f 460/540/485 459/538/485 474/545/485 475/547/485
f 453/524/486 452/539/486 467/546/486 468/548/486
f 461/529/487 460/540/487 475/547/487 476/549/487
f 454/525/488 453/524/488 468/548/488 469/550/488
f 447/527/489 326/551/489 462/552/489
f 482/553/490 461/529/490 476/549/490
f 455/530/491 454/525/491 469/550/491 470/554/491
f 448/531/492 447/527/492 462/552/492 463/555/492
f 456/532/493 455/530/493 470/554/493 471/556/493
f 449/533/494 448/531/494 463/555/494 464/557/494
f 457/534/495 456/532/495 471/556/495 472/541/495
f 450/535/496 449/533/496 464/557/496 465/543/496
f 462/552/497 326/558/497 1/5/497
f 482/559/498 476/549/498 481/9/498
f 470/554/499 469/550/499 477/1/499 478/11/499
f 463/555/500 462/552/500 1/5/500 2/13/500
f 471/556/501 470/554/501 478/11/501 479/15/501
f 464/557/502 463/555/502 2/13/502 3/17/502
f 472/541/503 471/556/503 479/15/503 8/19/503
f 465/543/504 464/557/504 3/17/504 4/21/504
f 473/542/505 472/541/505 8/19/505 9/23/505
f 466/544/506 465/543/506 4/21/506 5/25/506
f 474/545/507 473/542/507 9/23/507 10/27/507
f 467/546/508 466/544/508 5/25/508 6/29/508
f 475/547/509 474/545/509 10/27/509 480/31/509
f 468/548/510 467/546/510 6/29/510 7/2/510
f 476/549/511 475/547/511 480/31/511 481/9/511
f 469/550/512 468/548/512 7/2/512 477/1/512
